{
    "version": 3,
    "cmakeMinimumRequired": {
        "major": 3,
        "minor": 21,
        "patch": 0
    },
    "configurePresets": [
        {
            "name": "root",
            "hidden": true,
            "description": "Base preset",
            "binaryDir": "${sourceDir}/out/build/${presetName}",
            "cacheVariables": {
                "CMAKE_INSTALL_PREFIX": "${sourceDir}/out/install/${presetName}",
                "CMAKE_CXX_STANDARD": "23"
            },
            "environment": {
                "COVERAGE_REPORT_PATH": "${sourceDir}/out/coverage"
            }

        },
        {
            "name": "release",
            "hidden": true,
            "description": "Release",
            "cacheVariables": {
                "CMAKE_BUILD_TYPE": "Release",
                "CMAKE_CXX_FLAGS": "$env{CXX_RELEASE_WARNINGS} $env{CXX_RELEASE_OPTIONS}"
            }
        },
        {
            "name": "debug",
            "hidden": true,
            "description": "Debug",
            "cacheVariables": {
                "CMAKE_BUILD_TYPE": "Debug",
                "CMAKE_CXX_FLAGS": "$env{CXX_DEBUG_WARNINGS} $env{CXX_DEBUG_OPTIONS}"
            }
        },
        {
            "name": "coverage",
            "hidden": true,
            "description": "Coverage",
            "cacheVariables": {
                "CMAKE_BUILD_TYPE": "Coverage",
                "CMAKE_CXX_FLAGS": "$env{CXX_DEBUG_WARNINGS} $env{CXX_COVERAGE_OPTIONS}"
            }
        },
        {
            "name": "mac",
            "hidden": true,
            "description": "Mac preset",
            "environment": {
                "CLANG_C_COMPILER": "/usr/bin/clang",
                "CLANG_CXX_COMPILER": "/usr/bin/clang++",
                "GCC_C_COMPILER": "gcc-13",
                "GCC_CXX_COMPILER": "g++-13",
                "RUNTOOL": "xcrun"
            },
            "condition": {
                "type": "equals",
                "lhs": "${hostSystemName}",
                "rhs": "Darwin"
              }
        },
        {
            "name": "win",
            "hidden": true,
            "description": "Windows preset",
            "environment": {
                "CLANG_C_COMPILER": "clang",
                "CLANG_CXX_COMPILER": "clang++",
                "MSVC_C_COMPILER": "cl",
                "MSVC_CXX_COMPILER": "cl",
                "RUNTOOL": ""
            },
            "condition": {
                "type": "equals",
                "lhs": "${hostSystemName}",
                "rhs": "Windows"
            }
        },
        {
            "name": "clang",
            "hidden": true,
            "description": "Clang preset",
            "inherits": [
                "root"
            ],
            "generator": "Ninja",
            "cacheVariables": {
                "CMAKE_C_COMPILER": "$env{CLANG_C_COMPILER}",
                "CMAKE_CXX_COMPILER": "$env{CLANG_CXX_COMPILER}"
            },
            "environment": {
                "CXX_RELEASE_WARNINGS": "-Wall -Wextra -pedantic -Werror",
                "CXX_DEBUG_WARNINGS": "-Wall -Wextra -pedantic",
                "CXX_COVERAGE_OPTIONS": "-fprofile-instr-generate -fcoverage-mapping",
                "COVERAGE_TOOL": "LLVM"
            },
            "vendor": {
                "microsoft.com/VisualStudioSettings/CMake/1.0": {
                  "intelliSenseMode": "windows-clang-x64"
                }
            }
        },
        {
            "name": "msvc",
            "hidden": true,
            "inherits": [
                "root"
            ],
            "generator": "Ninja",
            "cacheVariables": {
                "CMAKE_C_COMPILER": "$env{MSVC_C_COMPILER}",
                "CMAKE_CXX_COMPILER": "$env{MSVC_CXX_COMPILER}"
            },            
            "architecture": {
                "value": "x64",
                "strategy": "external"
            },
            "vendor": {
                "microsoft.com/VisualStudioSettings/CMake/1.0": {
                    "hostOS": ["Windows"]
                }
            },
            "environment": {
                "CXX_RELEASE_WARNINGS": "/EHsc /W4 /WX",
                "CXX_DEBUG_WARNINGS": "/EHsc /W4"
            }
        },
        {
            "name": "gcc",
            "hidden": true,
            "description": "gcc preset",
            "inherits": [
                "root"
            ],
            "generator": "Ninja",
            "cacheVariables": {
                "CMAKE_C_COMPILER": "$env{GCC_C_COMPILER}",
                "CMAKE_CXX_COMPILER": "$env{GCC_CXX_COMPILER}"
            },
            "environment": {
                "CXX_RELEASE_WARNINGS": "-Wall -Wextra -pedantic -Werror",
                "CXX_RELEASE_OPTIONS": "-ld_classic",
                "CXX_DEBUG_WARNINGS": "-Wall -Wextra -pedantic",
                "CXX_DEBUG_OPTIONS": "-ld_classic",
                "CXX_COVERAGE_OPTIONS": "-ld_classic --coverage",
                "COVERAGE_TOOL": "gcov-13"
            }
        },
        {
            "name": "clang-mac-release",
            "displayName": "Clang Release",
            "inherits": ["clang", "mac", "release"]
        },
        {
            "name": "clang-mac-debug",
            "displayName": "Clang Debug",
            "inherits": ["clang", "mac", "debug"]
        },
        {
            "name": "clang-mac-coverage",
            "displayName": "Clang Coverage",
            "inherits": ["clang", "mac", "coverage"]
        },
        {
            "name": "gcc-mac-release",
            "displayName": "GCC Release",
            "inherits": ["gcc", "mac", "release"]
        },
        {
            "name": "gcc-mac-debug",
            "displayName": "GCC Debug",
            "inherits": ["gcc", "mac", "debug"]
        },
        {
            "name": "gcc-mac-coverage",
            "displayName": "GCC Coverage",
            "inherits": ["gcc", "mac", "coverage"]
        },
        {
            "name": "clang-win-release",
            "displayName": "Clang Release",
            "inherits": ["clang", "win", "release"]
        },
        {
            "name": "clang-win-debug",
            "displayName": "Clang Debug",
            "inherits": ["clang", "win", "debug"]
        },
        {
            "name": "clang-win-coverage",
            "displayName": "Clang Coverage",
            "inherits": ["clang", "win", "coverage"]
        },
        {
            "name": "msvc-win-release",
            "displayName": "MSVC Release",
            "inherits": ["msvc", "win", "release"]
        },
        {
            "name": "msvc-win-debug",
            "displayName": "MSVC Debug",
            "inherits": ["msvc", "win", "debug"]
        }        
    ],
    "buildPresets": [
    ],
    "testPresets": [
        {
            "name": "test-root",
            "hidden": true,
            "description": "Test root preset",
            "output": {
                "outputOnFailure": true
            }
        },
        {
            "name": "test-coverage",
            "hidden": true,
            "description": "Test Code coverage preset",
            "inherits":["test-root"],
            "output": {
                "maxPassedTestOutputSize": 307200
            }
        },
        {
            "name": "test-clang-mac",
            "displayName": "Test Debug",
            "configurePreset": "clang-mac-debug",
            "inherits":["test-root"]
        },
        {
            "name": "test-clang-mac-coverage",
            "displayName": "Test Coverage",
            "configurePreset": "clang-mac-coverage",
            "inherits":["test-coverage"]
        },
        {
            "name": "test-gcc-mac",
            "displayName": "Test Debug",
            "configurePreset": "gcc-mac-debug",
            "inherits":["test-root"]
        },
        {
            "name": "test-gcc-mac-coverage",
            "displayName": "Test Coverage",
            "configurePreset": "gcc-mac-coverage",
            "inherits":["test-coverage"]
        },
        {
            "name": "test-clang-win",
            "displayName": "Test Debug",
            "configurePreset": "clang-win-debug",
            "inherits":["test-root"]
        },
        {
            "name": "test-clang-win-coverage",
            "displayName": "Test Coverage",
            "configurePreset": "clang-win-coverage",
            "inherits":["test-coverage"]
        },
        {
            "name": "test-msvc-win",
            "displayName": "Test Debug",
            "configurePreset": "msvc-win-debug",
            "inherits":["test-root"]
        }
    ]
}